^C:\USERS\LAP\SOURCE\REPOS\CONSOLEAPPLICATIONZIBITEST1\CONSOLEAPPLICATIONZIBITEST1\DEBUG\CONSOLEAPPLICATIONZIBITEST1.OBJ|C:\USERS\LAP\SOURCE\REPOS\CONSOLEAPPLICATIONZIBITEST1\CONSOLEAPPLICATIONZIBITEST1\DEBUG\CONSOLEAPPLICATIONZIBITEST1.RES|C:\USERS\LAP\SOURCE\REPOS\CONSOLEAPPLICATIONZIBITEST1\CONSOLEAPPLICATIONZIBITEST1\DEBUG\PCH.OBJ
C:\USERS\LAP\SOURCE\REPOS\CONSOLEAPPLICATIONZIBITEST1\DEBUG\CONSOLEAPPLICATIONZIBITEST1.ILK
C:\USERS\LAP\SOURCE\REPOS\CONSOLEAPPLICATIONZIBITEST1\DEBUG\CONSOLEAPPLICATIONZIBITEST1.EXE
C:\USERS\LAP\SOURCE\REPOS\CONSOLEAPPLICATIONZIBITEST1\DEBUG\CONSOLEAPPLICATIONZIBITEST1.PDB
